'date_heure';'alt_date';'description';'lien';'adresse'
'28-03-2024 18:30';;'Glou chez Odette (bar à tapas)';'https://osm.org/go/0Byi9Kv3U-?m=';'43, Boulevard Foch à Reims'
'11-04-2024 18:30';;'Visioconférence "Évolutions du site internet"';'https://www.agendadulibre.org/events/29859';
'18-04-2024 18:30';;'Glou';'/agenda/';
'09-05-2024 18:30';;'Visioconférence';'/agenda/';
'23-05-2024 18:30';;'Glou';'/agenda/';
'06-06-2024 18:30';;'Visioconférence';'/agenda/';
'20-06-2024 18:30';;'Glou';'/agenda/';
'04-07-2024 18:30';;'Visioconférence';'/agenda/';
'25-07-2024 18:30';;'Glou des vacances';'/agenda/';
'08-08-2024 18:30';;'Glou des vacances';'/agenda/';
'08-09-2024 19:00';'Les 7 et 8 septembre 2024';'Forum des association - Numéro de stand à venir';'https://www.reims.fr/accompagnement-solidarite-seniors/reims-ville-solidaire/la-maison-de-la-vie-associative/le-forum-des-associations';
'19-09-2024 18:30';;'Glou';'/agenda/';
'03-10-2024 18:30';;'Visioconférence';'/agenda/';
'17-10-2024 18:30';;'Glou';'/agenda/';
